"subject","selector","default","format"
"seed_url","https://hc.com.vn/dien-thoai/dien-thoai-di-dong",,
"next_link","//a[@class=""next i-next""]/@href",,
"phone_links","//h2[@class=""product-name""]/a/@href",,
"brand","//table[@id=""product-attribute-specs-table""]/tbody/tr/th[text()=""Hãng""]/following-sibling::td[1]/text()",,
"line","//table[@id=""product-attribute-specs-table""]/tbody/tr/th[text()=""Tên sản phẩm""]/following-sibling::td[1]/text()",,
"battery","//table[@id=""product-attribute-specs-table""]/tbody/tr/th[text()=""Pin""]/following-sibling::td[1]/text()",,
"color",,,
"price","//span[@class=""price""]/text()",,
"chipset","//table[@id=""product-attribute-specs-table""]/tbody/tr/th[text()=""Chipset""]/following-sibling::td[1]/text()",,
"os","//table[@id=""product-attribute-specs-table""]/tbody/tr/th[text()=""Hệ điều hành""]/following-sibling::td[1]/text()",,
"screen","//table[@id=""product-attribute-specs-table""]/tbody/tr/th[text()=""Kích thước màn hình""]/following-sibling::td[1]/text()","Banxehoi.com",
"camera","//table[@id=""product-attribute-specs-table""]/tbody/tr/th[text()=""Camera sau""]/following-sibling::td[1]/text()",,
"storage","//table[@id=""product-attribute-specs-table""]/tbody/tr/th[contains(text(), ""Bộ nhớ trong"")]/following-sibling::td[1]/text()",,
